com\libraryApp\dao\UserDaoImpl$1.class
com\libraryApp\model\Views.class
com\libraryApp\model\Book.class
com\libraryApp\controller\UsersController.class
com\libraryApp\dao\BookDao.class
com\libraryApp\config\SecurityWebApplicationInitializer.class
com\libraryApp\dao\BookDaoImpl$UserMapper.class
com\libraryApp\dao\BookDaoImpl$1.class
com\libraryApp\model\User.class
com\libraryApp\config\ApplicationContextConfig.class
com\libraryApp\config\SecurityConfig.class
com\libraryApp\controller\MainController.class
com\libraryApp\dao\UserDao.class
com\libraryApp\config\db\H2DataSource.class
com\libraryApp\services\UserDetailsServiceImpl.class
com\libraryApp\dao\UserDaoImpl.class
com\libraryApp\dao\BookDaoImpl.class
com\libraryApp\model\AjaxMsg.class
com\libraryApp\dao\UserDaoImpl$UserMapper.class
com\libraryApp\config\SpringWebInitializer.class
com\libraryApp\controller\BooksController.class
